<svg width="12" height="12" viewBox="0 0 12 12" fill="none" xmlns="http://www.w3.org/2000/svg">
<g clip-path="url(#clip0_1871_2755)">
<path d="M5.15862 11.4599L0.0263231 0.385811C-0.0570752 0.209113 0.0683222 0 0.253119 0H2.03148C2.12688 0 2.21628 0.0572043 2.25828 0.145553L6.0064 8.17958C6.3406 8.90035 7.30718 8.90035 7.64137 8.17958L11.3775 0.151909C11.4195 0.0635603 11.5089 0.00635603 11.6043 0.00635603H11.8251C11.9565 0.00635603 12.0399 0.151909 11.9805 0.272038L6.79419 11.4599C6.45999 12.1801 5.49281 12.1801 5.15862 11.4599V11.4599Z" fill="url(#paint0_linear_1871_2755)"/>
<path opacity="0.1" d="M5.16073 11.4604L2.26039 0.152389C2.21839 0.0576842 2.123 0.00683594 2.0456 0.00683594H0.261233C0.0644367 0.00683594 -0.048961 0.215314 0.0284374 0.392647L5.16073 11.4604Z" fill="white"/>
<path opacity="0.1" d="M6.00643 8.1853L0.0263504 0.385811C-0.0450482 0.202757 0.0623497 0.0190681 0.229146 0H2.03751C2.13891 0.00635603 2.21631 0.0756368 2.25231 0.145553L6.00643 8.1853Z" fill="white"/>
</g>
<defs>
<linearGradient id="paint0_linear_1871_2755" x1="-1.63892e-05" y1="6.00003" x2="12" y2="6.00003" gradientUnits="userSpaceOnUse">
<stop stop-color="#9D4ABE"/>
<stop offset="0.03" stop-color="#9055C4"/>
<stop offset="0.15" stop-color="#6B74D6"/>
<stop offset="0.26" stop-color="#4C8FE5"/>
<stop offset="0.39" stop-color="#34A3F0"/>
<stop offset="0.52" stop-color="#22B2F9"/>
<stop offset="0.66" stop-color="#18BAFD"/>
<stop offset="0.83" stop-color="#15BDFF"/>
<stop offset="1" stop-color="#28BAD5"/>
</linearGradient>
<clipPath id="clip0_1871_2755">
<rect width="12" height="12" fill="white"/>
</clipPath>
</defs>
</svg>
